^C:\USERS\1\SOURCE\REPOS\MAPZ_LAB8_FASAD\MAPZ_LAB8_FASAD.CPP
C:\USERS\1\SOURCE\REPOS\MAPZ_LAB8_FASAD\DEBUG\VC142.PDB
C:\USERS\1\SOURCE\REPOS\MAPZ_LAB8_FASAD\DEBUG\VC142.IDB
C:\USERS\1\SOURCE\REPOS\MAPZ_LAB8_FASAD\DEBUG\MAPZ_LAB8_FASAD.OBJ
