^C:\USERS\1\SOURCE\REPOS\MAPZ_LAB7_ABSTRACT_FACTORY\DEBUG\MAPZ_LAB7_ABSTRACT_FACTORY.OBJ
C:\USERS\1\SOURCE\REPOS\MAPZ_LAB7_ABSTRACT_FACTORY\DEBUG\MAPZ_LAB7_ABSTRACT_FACTORY.EXE
C:\USERS\1\SOURCE\REPOS\MAPZ_LAB7_ABSTRACT_FACTORY\DEBUG\MAPZ_LAB7_ABSTRACT_FACTORY.ILK
C:\USERS\1\SOURCE\REPOS\MAPZ_LAB7_ABSTRACT_FACTORY\DEBUG\MAPZ_LAB7_ABSTRACT_FACTORY.PDB
